db.fam.insert({
_id:"grand_father",
name:"nagesh",
children:[
           {
             name:"Tarun",
             children:[{Name:"Deepak"},{Name:"Dinesh"}],
             spouse:{Name:"Rohini"}

           },
           
           {
             name:"vishali",
             children:[
                       {name:"ramya",
                        children:[
                                            {Name:"Anish",
                                             children:[{Name:"lokesh"},{Name:"navya"}],
                                             spouse:{Name:"Swati"}
                                             },                   
                                            {Name:"kumar"}],
                        spouse:{Name:"hitesh"}
                       },
                        {
                          name:"ramesh",
                          spouse:{Name:"radha"}
                         }],
             spouse:{Name:"raj"}

           }
         ],
spouse:{Name:"Hema"}});