db.family.insert(
{
 _id:"GF",
 name:"ntr",
 spouse:{name:"lakshmidevi"},
 children:
[
   	{name:"hari",
	spouse:{name:"radha"},
 	children:[{name:"Jr.ntr"}]
	},
	{
	name:"krishna",
	spouse:{name:"priya"},
	children:[{name:"vinay"},{name:"vinutha"}]
	}
 	]
});


